{
    "item.bow": {
        "max": 3,
        "images": "/images/items/bow.png",
        "counting": [
            "",
            "30",
            "40",
            "50"
        ]
    },
    "item.hookshot": {
        "max": 2,
        "mark": false,
        "images": [
            "/images/items/hookshot_small.png",
            "/images/items/hookshot_small.png",
            "/images/items/hookshot_long.png"
        ],
        "counting": [
            "",
            "H",
            "L"
        ]
    },
    "item.hammer": {
        "max": 1,
        "images": "/images/items/hammer.png"
    },
    "item.stick": {
        "max": 3,
        "images": "/images/items/stick.png",
        "counting": [
            "",
            "10",
            "20",
            "30"
        ]
    },
    "item.nut": {
        "max": 3,
        "images": "/images/items/nut.png",
        "counting": [
            "",
            "20",
            "30",
            "40"
        ]
    },
    "item.slingshot": {
        "max": 3,
        "images": "/images/items/slingshot.png",
        "counting": [
            "",
            "30",
            "40",
            "50"
        ]
    },
    "item.boomerang": {
        "max": 1,
        "images": "/images/items/boomerang.png"
    },
    "item.bombs": {
        "max": 3,
        "images": "/images/items/bombs.png",
        "counting": [
            "",
            "20",
            "30",
            "40"
        ]
    },
    "item.bombchu": {
        "max": 1,
        "images": "/images/items/bombchu.png"
    },
    "item.lens": {
        "max": 1,
        "images": "/images/items/lens.png"
    },
    "item.magic_din": {
        "max": 1,
        "images": "/images/items/magic_din.png"
    },
    "item.magic_farore": {
        "max": 1,
        "images": "/images/items/magic_farore.png"
    },
    "item.magic_nayru": {
        "max": 1,
        "images": "/images/items/magic_nayru.png"
    },
    "item.arrow_fire": {
        "max": 1,
        "images": "/images/items/arrow_fire.png"
    },
    "item.arrow_ice": {
        "max": 1,
        "images": "/images/items/arrow_ice.png"
    },
    "item.arrow_light": {
        "max": 1,
        "images": "/images/items/arrow_light.png"
    },
    "item.ice_trap": {
        "max": false,
        "images": "/images/items/ice_trap.png"
    },
    "item.triforce_piece": {
        "max": false,
        "images": "/images/items/triforce_piece.png"
    },
    "item.arrows": {
        "max": 3,
        "images": [
            "/images/items/arrow_none.png",
            "/images/items/arrow_fire.png",
            "/images/items/arrow_light.png",
            "/images/items/arrow_both.png"
        ],
        "affect": [
            {
                "arrow_fire": 0,
                "arrow_light": 0
            },
            {
                "arrow_fire": 1,
                "arrow_light": 0
            },
            {
                "arrow_fire": 0,
                "arrow_light": 1
            },
            {
                "arrow_fire": 1,
                "arrow_light": 1
            }
        ]
    },
    "item.ocarina": {
        "max": 2,
        "images": [
            "/images/items/ocarina_saria.png",
            "/images/items/ocarina_saria.png",
            "/images/items/ocarina_time.png"
        ]
    },
    "item.bottle": {
        "max": 4,
        "counting": true,
        "images": "/images/items/bottle.png"
    },
    "item.wallet": {
        "max": 3,
        "mark": 2,
        "images": [
            "/images/items/wallet_default.png",
            "/images/items/wallet_silver.png",
            "/images/items/wallet_gold.png",
            "/images/items/wallet_gold.png"
        ],
        "counting": [
            "99",
            "200",
            "500",
            "999"
        ],
        "always_active": true
    },
    "item.bean": {
        "max": 10,
        "counting": true,
        "images": "/images/items/bean.png"
    },
    "item.skulltula": {
        "max": 100,
        "mark": 50,
        "counting": true,
        "alternate_counting": [
            0,
            10,
            20,
            30,
            40,
            50,
            100
        ],
        "images": "/images/items/skulltula.png"
    },
    "item.egg": {
        "max": 8,
        "images": [
            "/images/items/egg.png",
            "/images/items/egg.png",
            "/images/items/cucco.png",
            "/images/items/zelda_letter.png",
            "/images/items/mask_keaton.png",
            "/images/items/mask_skull.png",
            "/images/items/mask_spooky.png",
            "/images/items/mask_bunny.png",
            "/images/items/mask_truth.png"
        ]
    },
    "item.cojiro": {
        "max": 11,
        "start_settings": "option.trade_sequence_start_item",
        "images": [
            "/images/items/egg_cojiro.png",
            "/images/items/egg_cojiro.png",
            "/images/items/cucco.png",
            "/images/items/cojiro.png",
            "/images/items/mushroom.png",
            "/images/items/medicine.png",
            "/images/items/saw.png",
            "/images/items/broken_sword.png",
            "/images/items/prescription.png",
            "/images/items/frog.png",
            "/images/items/eyedrops.png",
            "/images/items/claim.png"
        ]
    },
    "item.sword_kokiri": {
        "max": 1,
        "images": "/images/items/sword_kokiri.png"
    },
    "item.sword_master": {
        "max": 1,
        "images": "/images/items/sword_master.png",
        "blacklist_shop": true
    },
    "item.sword_biggoron": {
        "max": 1,
        "images": "/images/items/sword_biggoron.png"
    },
    "item.shield_kokiri": {
        "max": 1,
        "images": "/images/items/shield_kokiri.png"
    },
    "item.shield_hylia": {
        "max": 1,
        "images": "/images/items/shield_hylia.png"
    },
    "item.shield_mirror": {
        "max": 1,
        "images": "/images/items/shield_mirror.png"
    },
    "item.tunic_forest": {
        "max": 0,
        "images": "/images/items/tunic_forest.png",
        "always_active": true,
        "blacklist_shop": true
    },
    "item.tunic_fire": {
        "max": 1,
        "images": "/images/items/tunic_fire.png"
    },
    "item.tunic_water": {
        "max": 1,
        "images": "/images/items/tunic_water.png"
    },
    "item.tunics": {
        "max": 3,
        "images": [
            "/images/items/tunic_forest.png",
            "/images/items/tunic_fire.png",
            "/images/items/tunic_water.png",
            "/images/items/tunic_both.png"
        ],
        "affect": [
            {
                "tunic_fire": 0,
                "tunic_water": 0
            },
            {
                "tunic_fire": 1,
                "tunic_water": 0
            },
            {
                "tunic_fire": 0,
                "tunic_water": 1
            },
            {
                "tunic_fire": 1,
                "tunic_water": 1
            }
        ]
    },
    "item.boots_normal": {
        "max": 0,
        "images": "/images/items/boots_normal.png",
        "always_active": true,
        "blacklist_shop": true
    },
    "item.boots_iron": {
        "max": 1,
        "images": "/images/items/boots_iron.png"
    },
    "item.boots_hover": {
        "max": 1,
        "images": "/images/items/boots_hover.png"
    },
    "item.boots": {
        "max": 3,
        "images": [
            "/images/items/boots_normal.png",
            "/images/items/boots_iron.png",
            "/images/items/boots_hover.png",
            "/images/items/boots_both.png"
        ],
        "affect": [
            {
                "boots_iron": false,
                "boots_hover": false
            },
            {
                "boots_iron": true,
                "boots_hover": false
            },
            {
                "boots_iron": false,
                "boots_hover": true
            },
            {
                "boots_iron": true,
                "boots_hover": true
            }
        ]
    },
    "item.glove": {
        "max": 3,
        "mark": false,
        "images": [
            "/images/items/glove_goron.png",
            "/images/items/glove_goron.png",
            "/images/items/glove_silver.png",
            "/images/items/glove_gold.png"
        ],
        "counting": [
            "",
            "",
            "S",
            "G"
        ]
    },
    "item.scale": {
        "max": 2,
        "mark": false,
        "images": [
            "/images/items/scale_silver.png",
            "/images/items/scale_silver.png",
            "/images/items/scale_gold.png"
        ],
        "counting": [
            "",
            "S",
            "G"
        ]
    },
    "item.stone_of_agony": {
        "max": 1,
        "images": "/images/items/stoneofagony.png"
    },
    "item.magic_power": {
        "max": 2,
        "mark": false,
        "images": [
            "/images/items/magic_power_small.png",
            "/images/items/magic_power_small.png",
            "/images/items/magic_power_big.png"
        ],
        "counting": [
            "",
            "",
            "+"
        ]
    },
    "item.zora_letter": {
        "max": 1,
        "images": "/images/items/zora_letter.png"
    },
    "item.membership": {
        "max": 1,
        "images": "/images/items/membership.png"
    },
    "item.song_zelda": {
        "max": 1,
        "images": "/images/items/song_zelda.png"
    },
    "item.song_epona": {
        "max": 1,
        "images": "/images/items/song_epona.png"
    },
    "item.song_sun": {
        "max": 1,
        "images": "/images/items/song_sun.png"
    },
    "item.song_saria": {
        "max": 1,
        "images": "/images/items/song_saria.png"
    },
    "item.song_time": {
        "max": 1,
        "images": "/images/items/song_time.png"
    },
    "item.song_storm": {
        "max": 1,
        "images": "/images/items/song_storm.png"
    },
    "item.warp_forest": {
        "max": 1,
        "images": "/images/items/warp_forest.png"
    },
    "item.warp_fire": {
        "max": 1,
        "images": "/images/items/warp_fire.png"
    },
    "item.warp_water": {
        "max": 1,
        "images": "/images/items/warp_water.png"
    },
    "item.warp_shadow": {
        "max": 1,
        "images": "/images/items/warp_shadow.png"
    },
    "item.warp_spirit": {
        "max": 1,
        "images": "/images/items/warp_spirit.png"
    },
    "item.warp_light": {
        "max": 1,
        "images": "/images/items/warp_light.png"
    },
    "item.stone_forest": {
        "max": 1,
        "images": "/images/items/stone_forest.png",
        "blacklist_shop": true
    },
    "item.stone_fire": {
        "max": 1,
        "images": "/images/items/stone_fire.png",
        "blacklist_shop": true
    },
    "item.stone_water": {
        "max": 1,
        "images": "/images/items/stone_water.png",
        "blacklist_shop": true
    },
    "item.medallion_forest": {
        "max": 1,
        "images": "/images/items/medallion_forest.png",
        "blacklist_shop": true
    },
    "item.medallion_fire": {
        "max": 1,
        "images": "/images/items/medallion_fire.png",
        "blacklist_shop": true
    },
    "item.medallion_water": {
        "max": 1,
        "images": "/images/items/medallion_water.png",
        "blacklist_shop": true
    },
    "item.medallion_spirit": {
        "max": 1,
        "images": "/images/items/medallion_spirit.png",
        "blacklist_shop": true
    },
    "item.medallion_shadow": {
        "max": 1,
        "images": "/images/items/medallion_shadow.png",
        "blacklist_shop": true
    },
    "item.medallion_light": {
        "max": 1,
        "images": "/images/items/medallion_light.png",
        "blacklist_shop": true
    },
    "item.key_small_forest": {
        "max": 5,
        "maxmq": 6,
        "related_dungeon": "temple_forest",
        "counting": true,
        "images": "/images/items/key_small.png"
    },
    "item.key_boss_forest": {
        "max": 1,
        "related_dungeon": "temple_forest",
        "images": "/images/items/key_boss.png"
    },
    "item.key_small_fire": {
        "max": 8,
        "maxmq": 5,
        "related_dungeon": "temple_fire",
        "counting": true,
        "images": "/images/items/key_small.png"
    },
    "item.key_boss_fire": {
        "max": 1,
        "related_dungeon": "temple_fire",
        "images": "/images/items/key_boss.png"
    },
    "item.key_small_water": {
        "max": 6,
        "maxmq": 2,
        "related_dungeon": "temple_water",
        "counting": true,
        "images": "/images/items/key_small.png"
    },
    "item.key_boss_water": {
        "max": 1,
        "related_dungeon": "temple_water",
        "images": "/images/items/key_boss.png"
    },
    "item.key_small_shadow": {
        "max": 5,
        "maxmq": 6,
        "related_dungeon": "temple_shadow",
        "counting": true,
        "images": "/images/items/key_small.png"
    },
    "item.key_boss_shadow": {
        "max": 1,
        "related_dungeon": "temple_shadow",
        "images": "/images/items/key_boss.png"
    },
    "item.key_small_spirit": {
        "max": 5,
        "maxmq": 7,
        "related_dungeon": "temple_spirit",
        "counting": true,
        "images": "/images/items/key_small.png"
    },
    "item.key_boss_spirit": {
        "max": 1,
        "related_dungeon": "temple_spirit",
        "images": "/images/items/key_boss.png"
    },
    "item.key_small_ganon": {
        "max": 2,
        "maxmq": 3,
        "related_dungeon": "castle_ganon",
        "counting": true,
        "images": "/images/items/key_small.png"
    },
    "item.key_boss_ganon": {
        "max": 1,
        "related_dungeon": "castle_ganon",
        "images": "/images/items/key_boss.png"
    },
    "item.key_small_gerudo": {
        "max": 4,
        "counting": true,
        "images": "/images/items/key_small.png"
    },
    "item.key_small_training": {
        "max": 9,
        "maxmq": 3,
        "related_dungeon": "gerudo_training",
        "counting": true,
        "images": "/images/items/key_small.png"
    },
    "item.key_small_well": {
        "max": 3,
        "maxmq": 2,
        "related_dungeon": "well",
        "counting": true,
        "images": "/images/items/key_small.png"
    },
    "item.compass_deku": {
        "max": 1,
        "images": "/images/items/compass.png"
    },
    "item.dungeon_map_deku": {
        "max": 1,
        "images": "/images/items/dungeon_map.png"
    },
    "item.compass_dodongo": {
        "max": 1,
        "images": "/images/items/compass.png"
    },
    "item.dungeon_map_dodongo": {
        "max": 1,
        "images": "/images/items/dungeon_map.png"
    },
    "item.compass_jabujabu": {
        "max": 1,
        "images": "/images/items/compass.png"
    },
    "item.dungeon_map_jabujabu": {
        "max": 1,
        "images": "/images/items/dungeon_map.png"
    },
    "item.compass_temple_forest": {
        "max": 1,
        "images": "/images/items/compass.png"
    },
    "item.dungeon_map_temple_forest": {
        "max": 1,
        "images": "/images/items/dungeon_map.png"
    },
    "item.compass_temple_fire": {
        "max": 1,
        "images": "/images/items/compass.png"
    },
    "item.dungeon_map_temple_fire": {
        "max": 1,
        "images": "/images/items/dungeon_map.png"
    },
    "item.compass_temple_water": {
        "max": 1,
        "images": "/images/items/compass.png"
    },
    "item.dungeon_map_temple_water": {
        "max": 1,
        "images": "/images/items/dungeon_map.png"
    },
    "item.compass_temple_shadow": {
        "max": 1,
        "images": "/images/items/compass.png"
    },
    "item.dungeon_map_temple_shadow": {
        "max": 1,
        "images": "/images/items/dungeon_map.png"
    },
    "item.compass_temple_spirit": {
        "max": 1,
        "images": "/images/items/compass.png"
    },
    "item.dungeon_map_temple_spirit": {
        "max": 1,
        "images": "/images/items/dungeon_map.png"
    },
    "item.compass_well": {
        "max": 1,
        "images": "/images/items/compass.png"
    },
    "item.dungeon_map_well": {
        "max": 1,
        "images": "/images/items/dungeon_map.png"
    },
    "item.compass_ice": {
        "max": 1,
        "images": "/images/items/compass.png"
    },
    "item.dungeon_map_ice": {
        "max": 1,
        "images": "/images/items/dungeon_map.png"
    },
    "item.heart_piece": {
        "max": 36,
        "counting": true,
        "images": "/images/items/heart_piece.png"
    },
    "item.heart_container": {
        "max": 8,
        "counting": true,
        "images": "/images/items/heart_container.png"
    },
    "item.heart_double": {
        "max": 1,
        "images": "/images/items/heart_double.png"
    },
    "item.sold_out": {
        "max": 0,
        "images": "/images/items/sold_out.png",
        "always_active": true
    },
    "item.blue_fire": {
        "max": 0,
        "images": "/images/items/bottle_blue_fire.png",
        "always_active": true
    },
    "item.bugs": {
        "max": 0,
        "images": "/images/items/bottle_bugs.png",
        "always_active": true
    },
    "item.fairy_spirit": {
        "max": 0,
        "images": "/images/items/bottle_fairy.png",
        "always_active": true
    },
    "item.fish": {
        "max": 0,
        "images": "/images/items/bottle_fish.png",
        "always_active": true
    },
    "item.milk": {
        "max": 0,
        "images": "/images/items/sold_out.png",
        "always_active": true
    },
    "item.poe": {
        "max": 0,
        "images": "/images/items/bottle_poe.png",
        "always_active": true
    },
    "item.poe_big": {
        "max": 0,
        "images": "/images/items/bottle_poe_big.png",
        "always_active": true
    },
    "item.potion_red": {
        "max": 0,
        "images": "/images/items/bottle_potion_red.png",
        "always_active": true
    },
    "item.potion_green": {
        "max": 0,
        "images": "/images/items/bottle_potion_green.png",
        "always_active": true
    },
    "item.potion_blue": {
        "max": 0,
        "images": "/images/items/bottle_potion_blue.png",
        "always_active": true
    }
}